<svg width="256" height="256" viewBox="0 0 256 256" fill="none" xmlns="http://www.w3.org/2000/svg">
<g clip-path="url(#clip0_1762_60)">
<rect width="256" height="256" fill="white"/>
<g clip-path="url(#clip1_1762_60)">
<path d="M44.3027 125.395V99.6152H46.13V113.06L58.6174 99.6152H60.8647L51.271 110.009L62.1588 125.395H59.989L49.9381 111.399L46.13 115.535V125.395H44.3027Z" fill="black"/>
<path d="M75.7511 126.008C74.0173 126.027 72.2987 125.679 70.7054 124.985C69.1908 124.317 67.8296 123.336 66.7083 122.106C65.5694 120.853 64.6776 119.391 64.0813 117.798C63.4509 116.114 63.1348 114.325 63.1491 112.523C63.1325 110.709 63.4486 108.908 64.0813 107.211C64.6744 105.622 65.5667 104.165 66.7083 102.922C67.869 101.669 69.27 100.671 70.825 99.9892C72.38 99.307 74.0562 98.9551 75.7503 98.9551C77.4444 98.9551 79.1205 99.307 80.6755 99.9892C82.2306 100.671 83.6315 101.669 84.7922 102.922C85.9339 104.165 86.8261 105.622 87.4192 107.211C88.0524 108.908 88.3691 110.709 88.3531 112.523C88.3668 114.325 88.0502 116.114 87.4192 117.798C86.8229 119.391 85.9311 120.853 84.7922 122.106C83.6706 123.336 82.3095 124.316 80.7951 124.985C79.2024 125.679 77.4843 126.027 75.7511 126.008V126.008ZM75.7511 124.268C77.9053 124.268 79.7773 123.74 81.367 122.684C82.9555 121.628 84.238 120.161 85.083 118.434C85.9836 116.602 86.4405 114.579 86.4159 112.532C86.4446 110.469 85.9876 108.429 85.083 106.581C84.238 104.855 82.9555 103.388 81.367 102.331C79.7783 101.275 77.9063 100.748 75.7511 100.748C73.6184 100.748 71.7529 101.275 70.1545 102.331C68.5582 103.384 67.2693 104.851 66.4223 106.581C65.5178 108.429 65.0608 110.469 65.0894 112.532C65.0636 114.582 65.5205 116.608 66.4223 118.443C67.2693 120.173 68.5582 121.64 70.1545 122.693C71.7486 123.745 73.6141 124.27 75.7511 124.268Z" fill="black"/>
<path d="M93.748 125.395V99.6152H95.6529L111.948 122.608V99.6152H113.735V125.395H111.834L95.5382 102.706V125.395H93.748Z" fill="black"/>
<path d="M127.838 125.395V101.293H117.982V99.6152H139.525V101.278H129.67V125.395H127.838Z" fill="black"/>
<path d="M143.742 125.395V99.6152H158.978V101.353H145.568V111.091H156.039V112.829H145.568V123.651H159.96V125.395H143.742Z" fill="black"/>
<path d="M164.963 125.395V99.6152H166.868L183.153 122.608V99.6152H184.944V125.395H183.04L166.74 102.706V125.395H164.963Z" fill="black"/>
<path d="M191.482 125.395V99.6152H206.711V101.353H193.302V111.091H203.773V112.829H193.302V123.651H207.694V125.395H191.482Z" fill="black"/>
<path d="M212.691 125.395V99.6152H220.345C222.552 99.6152 224.315 99.9306 225.636 100.561C226.956 101.192 227.902 102.055 228.473 103.15C229.06 104.317 229.354 105.612 229.329 106.921C229.355 108.505 228.911 110.06 228.055 111.385C227.204 112.684 225.852 113.553 223.999 113.992L230.053 125.395H227.953L222.051 114.228H214.512V125.395H212.691ZM214.519 112.49H221.106C225.293 112.49 227.387 110.635 227.387 106.926C227.387 105.068 226.829 103.677 225.712 102.754C224.595 101.83 222.984 101.366 220.878 101.361H214.519V112.49Z" fill="black"/>
<path d="M240.825 125.395V113.564L232.068 99.6152H234.277L241.777 111.749L249.277 99.6152H251.409L242.652 113.564V125.395H240.825Z" fill="black"/>
<path d="M44.4824 157.128V130.852H62.1835V136.054H50.344V141.175H59.5435V146.22H50.344V151.893H63.0382V157.132L44.4824 157.128Z" fill="black"/>
<path d="M74.2535 157.128L64.7422 130.852H71.2258L77.5526 150.035L83.726 130.852H89.9366L80.4269 157.128H74.2535Z" fill="black"/>
<path d="M92.7441 157.128V130.852H110.444V136.054H98.6041V141.175H107.813V146.22H98.6041V151.893H111.298V157.132L92.7441 157.128Z" fill="black"/>
<path d="M115.252 157.128V130.852H120.85L132.068 147.904V130.852H137.853V157.128H132.527L121.036 139.748V157.128H115.252Z" fill="black"/>
<path d="M149.567 157.129V136.093H141.182V130.846H163.813V136.093H155.467V157.129H149.567Z" fill="black"/>
<path d="M177.942 157.793C176.119 157.811 174.311 157.456 172.625 156.749C171.013 156.067 169.552 155.066 168.325 153.805C167.099 152.543 166.132 151.046 165.482 149.402C164.136 145.899 164.136 142.011 165.482 138.508C166.135 136.87 167.098 135.378 168.316 134.117C169.535 132.853 170.995 131.855 172.606 131.182C176.027 129.787 179.848 129.787 183.269 131.182C184.876 131.865 186.333 132.864 187.558 134.122C188.782 135.379 189.749 136.87 190.404 138.508C191.75 142.011 191.75 145.899 190.404 149.402C189.753 151.046 188.787 152.543 187.56 153.804C186.334 155.065 184.873 156.067 183.261 156.749C181.575 157.456 179.766 157.811 177.942 157.793V157.793ZM177.942 152.199C179.469 152.199 180.782 151.816 181.883 151.051C182.981 150.293 183.854 149.244 184.407 148.018C184.996 146.721 185.294 145.308 185.279 143.881C185.295 142.46 184.997 141.053 184.407 139.764C183.852 138.55 182.979 137.514 181.883 136.77C180.783 136.022 179.47 135.648 177.942 135.648C176.415 135.648 175.102 136.024 174.003 136.775C172.906 137.522 172.028 138.557 171.462 139.769C170.858 141.054 170.552 142.462 170.569 143.886C170.554 145.316 170.859 146.73 171.462 148.023C172.026 149.247 172.904 150.294 174.003 151.056C175.103 151.819 176.416 152.2 177.942 152.199Z" fill="black"/>
<path d="M199.372 157.128L192.889 130.852H199.177L202.982 149.871L207.523 131.553H212.842L217.422 149.871L221.188 130.852H227.244L220.645 157.128H214.472L210.047 139.953L205.544 157.128H199.372Z" fill="black"/>
<path d="M230.277 157.128V130.852H247.98V136.054H236.141V141.175H245.34V146.22H236.141V151.893H248.833V157.132L230.277 157.128Z" fill="black"/>
<path d="M5 110.657L34.9654 99.6152V157.127L5 144.435V110.657Z" fill="black"/>
</g>
</g>
<defs>
<clipPath id="clip0_1762_60">
<rect width="256" height="256" fill="white"/>
</clipPath>
<clipPath id="clip1_1762_60">
<rect width="246.404" height="58.8009" fill="white" transform="translate(5 99)"/>
</clipPath>
</defs>
</svg>
